…
    options(
      ggplot2.continuous.colour = "viridis",
      ggplot2.continuous.fill = "viridis"
    )

    scale_colour_discrete = scale_colour_viridis_d
    scale_fill_discrete = scale_fill_viridis_d

## Problem 1

    library(p8105.datasets)
    data("instacart")
    instacart

    ## # A tibble: 1,384,617 × 15
    ##    order_id product_id add_to_cart_order reordered user_id eval_set order_number order_dow order_hour_of_day days_since_prior_order
    ##       <int>      <int>             <int>     <int>   <int> <chr>           <int>     <int>             <int>                  <int>
    ##  1        1      49302                 1         1  112108 train               4         4                10                      9
    ##  2        1      11109                 2         1  112108 train               4         4                10                      9
    ##  3        1      10246                 3         0  112108 train               4         4                10                      9
    ##  4        1      49683                 4         0  112108 train               4         4                10                      9
    ##  5        1      43633                 5         1  112108 train               4         4                10                      9
    ##  6        1      13176                 6         0  112108 train               4         4                10                      9
    ##  7        1      47209                 7         0  112108 train               4         4                10                      9
    ##  8        1      22035                 8         1  112108 train               4         4                10                      9
    ##  9       36      39612                 1         0   79431 train              23         6                18                     30
    ## 10       36      19660                 2         1   79431 train              23         6                18                     30
    ## # ℹ 1,384,607 more rows
    ## # ℹ 5 more variables: product_name <chr>, aisle_id <int>, department_id <int>, aisle <chr>, department <chr>
…
    n_aisles

    ## [1] 134

    #Counting the number of items ordered per aisle and rearranging from descending order to get the aisle with the most orders on top. 
    intacart_items_ordered = instacart |> 
      count(aisle, name = "items_ordered") |> 
      arrange(desc(items_ordered))

    intacart_items_ordered

    ## # A tibble: 134 × 2
    ##    aisle                         items_ordered
    ##    <chr>                                 <int>
    ##  1 fresh vegetables                     150609
    ##  2 fresh fruits                         150473
    ##  3 packaged vegetables fruits            78493
    ##  4 yogurt                                55240
    ##  5 packaged cheese                       41699
    ##  6 water seltzer sparkling water         36617
    ##  7 milk                                  32644
    ##  8 chips pretzels                        31269
    ##  9 soy lactosefree                       26240
    ## 10 bread                                 23635
    ## # ℹ 124 more rows
…
    intacart_items_ordered  |> 
      filter(items_ordered > 10000) |> 
      ggplot(aes(x = reorder(aisle, -items_ordered), y = items_ordered)) + 
      geom_col() +
      theme(axis.text.x = element_text(angle = 45, hjust = 1)) +  # rotate labels
      labs(title = "Items Ordered per Aisle (Above 10,000 Orders)",
           x = "Aisle",
           y = "Number of Items Ordered")

<img src="p8105_hw3_ss7636_files/figure-markdown_strict/unnamed-chunk-5-1.png" width="90%" />

    intacart_items_ordered

    ## # A tibble: 134 × 2
    ##    aisle                         items_ordered
    ##    <chr>                                 <int>
    ##  1 fresh vegetables                     150609
    ##  2 fresh fruits                         150473
    ##  3 packaged vegetables fruits            78493
    ##  4 yogurt                                55240
    ##  5 packaged cheese                       41699
    ##  6 water seltzer sparkling water         36617
    ##  7 milk                                  32644
    ##  8 chips pretzels                        31269
    ##  9 soy lactosefree                       26240
    ## 10 bread                                 23635
    ## # ℹ 124 more rows
…
    ## Rows: 322 Columns: 7
    ## ── Column specification ────────────────────────────────────────────────────────────────────────────────────────────────────────────
    ## Delimiter: ","
    ## chr (4): County, County Code, File Date, Neighborhood
    ## dbl (3): State FIPS, County FIPS, ZipCode
    ## 
    ## ℹ Use `spec()` to retrieve the full column specification for this data.
    ## ℹ Specify the column types or set `show_col_types = FALSE` to quiet this message.

    zipcodes

    ## # A tibble: 322 × 5
    ##    county county_code county_fips zip_code neighborhood              
    ##    <chr>  <chr>             <dbl>    <dbl> <chr>                     
    ##  1 Bronx  005               36005    10451 High Bridge and Morrisania
    ##  2 Bronx  005               36005    10452 High Bridge and Morrisania
    ##  3 Bronx  005               36005    10453 Central Bronx             
    ##  4 Bronx  005               36005    10454 Hunts Point and Mott Haven
    ##  5 Bronx  005               36005    10455 Hunts Point and Mott Haven
    ##  6 Bronx  005               36005    10456 High Bridge and Morrisania
    ##  7 Bronx  005               36005    10457 Central Bronx             
    ##  8 Bronx  005               36005    10458 Bronx Park and Fordham    
    ##  9 Bronx  005               36005    10459 Hunts Point and Mott Haven
    ## 10 Bronx  005               36005    10460 Central Bronx             
    ## # ℹ 312 more rows
…
    ## Rows: 149 Columns: 125
    ## ── Column specification ────────────────────────────────────────────────────────────────────────────────────────────────────────────
    ## Delimiter: ","
    ## chr   (6): RegionType, StateName, State, City, Metro, CountyName
    ## dbl (119): RegionID, SizeRank, RegionName, 2015-01-31, 2015-02-28, 2015-03-31, 2015-04-30, 2015-05-31, 2015-06-30, 2015-07-31, 2...
    ## 
    ## ℹ Use `spec()` to retrieve the full column specification for this data.
    ## ℹ Specify the column types or set `show_col_types = FALSE` to quiet this message.

    zillow

    ## # A tibble: 149 × 125
    ##    region_id size_rank region_name region_type state_name state city     metro       county_name x2015_01_31 x2015_02_28 x2015_03_31
    ##        <dbl>     <dbl>       <dbl> <chr>       <chr>      <chr> <chr>    <chr>       <chr>             <dbl>       <dbl>       <dbl>
    ##  1     62080         4       11368 zip         NY         NY    New York New York-N… Queens Cou…         NA          NA          NA 
    ##  2     62093         7       11385 zip         NY         NY    New York New York-N… Queens Cou…         NA          NA          NA 
    ##  3     62019         9       11208 zip         NY         NY    New York New York-N… Kings Coun…         NA          NA          NA 
    ##  4     62046        16       11236 zip         NY         NY    New York New York-N… Kings Coun…         NA          NA          NA 
    ##  5     61807        17       10467 zip         NY         NY    New York New York-N… Bronx Coun…         NA          NA          NA 
    ##  6     62085        18       11373 zip         NY         NY    New York New York-N… Queens Cou…         NA          NA          NA 
    ##  7     62037        19       11226 zip         NY         NY    New York New York-N… Kings Coun…       1920.       1947.       2039.
    ##  8     62018        20       11207 zip         NY         NY    New York New York-N… Kings Coun…       1943.       1851.       1852.
    ##  9     61639        29       10025 zip         NY         NY    New York New York-N… New York C…       3055.       3053.       3050.
    ## 10     62025        32       11214 zip         NY         NY    New York New York-N… Kings Coun…         NA          NA          NA 
    ## # ℹ 139 more rows
    ## # ℹ 113 more variables: x2015_04_30 <dbl>, x2015_05_31 <dbl>, x2015_06_30 <dbl>, x2015_07_31 <dbl>, x2015_08_31 <dbl>,
    ## #   x2015_09_30 <dbl>, x2015_10_31 <dbl>, x2015_11_30 <dbl>, x2015_12_31 <dbl>, x2016_01_31 <dbl>, x2016_02_29 <dbl>,
    ## #   x2016_03_31 <dbl>, x2016_04_30 <dbl>, x2016_05_31 <dbl>, x2016_06_30 <dbl>, x2016_07_31 <dbl>, x2016_08_31 <dbl>,
    ## #   x2016_09_30 <dbl>, x2016_10_31 <dbl>, x2016_11_30 <dbl>, x2016_12_31 <dbl>, x2017_01_31 <dbl>, x2017_02_28 <dbl>,
    ## #   x2017_03_31 <dbl>, x2017_04_30 <dbl>, x2017_05_31 <dbl>, x2017_06_30 <dbl>, x2017_07_31 <dbl>, x2017_08_31 <dbl>,
    ## #   x2017_09_30 <dbl>, x2017_10_31 <dbl>, x2017_11_30 <dbl>, x2017_12_31 <dbl>, x2018_01_31 <dbl>, x2018_02_28 <dbl>, …
…
    ## Rows: 149 Columns: 125
    ## ── Column specification ────────────────────────────────────────────────────────────────────────────────────────────────────────────
    ## Delimiter: ","
    ## chr   (6): RegionType, StateName, State, City, Metro, CountyName
    ## dbl (119): RegionID, SizeRank, RegionName, 2015-01-31, 2015-02-28, 2015-03-31, 2015-04-30, 2015-05-31, 2015-06-30, 2015-07-31, 2...
    ## 
    ## ℹ Use `spec()` to retrieve the full column specification for this data.
    ## ℹ Specify the column types or set `show_col_types = FALSE` to quiet this message.

    zillow

    ## # A tibble: 17,284 × 6
    ##    region_id size_rank zip_code county date        zori
    ##        <dbl>     <dbl>    <dbl> <chr>  <chr>      <dbl>
    ##  1     62080         4    11368 Queens 2015_01_31    NA
    ##  2     62080         4    11368 Queens 2015_02_28    NA
    ##  3     62080         4    11368 Queens 2015_03_31    NA
    ##  4     62080         4    11368 Queens 2015_04_30    NA
    ##  5     62080         4    11368 Queens 2015_05_31    NA
    ##  6     62080         4    11368 Queens 2015_06_30    NA
    ##  7     62080         4    11368 Queens 2015_07_31    NA
    ##  8     62080         4    11368 Queens 2015_08_31    NA
    ##  9     62080         4    11368 Queens 2015_09_30    NA
    ## 10     62080         4    11368 Queens 2015_10_31    NA
    ## # ℹ 17,274 more rows

    #Joining the two zipcode files by zipcode and county
    joined_zipcodes_nyc = left_join(zipcodes, zillow, by = c("zip_code", "county"))
    joined_zipcodes_nyc

    ## # A tibble: 17,342 × 9
    ##    county county_code county_fips zip_code neighborhood               region_id size_rank date        zori
    ##    <chr>  <chr>             <dbl>    <dbl> <chr>                          <dbl>     <dbl> <chr>      <dbl>
    ##  1 Bronx  005               36005    10451 High Bridge and Morrisania     61791       838 2015_01_31    NA
    ##  2 Bronx  005               36005    10451 High Bridge and Morrisania     61791       838 2015_02_28    NA
    ##  3 Bronx  005               36005    10451 High Bridge and Morrisania     61791       838 2015_03_31    NA
    ##  4 Bronx  005               36005    10451 High Bridge and Morrisania     61791       838 2015_04_30    NA
    ##  5 Bronx  005               36005    10451 High Bridge and Morrisania     61791       838 2015_05_31    NA
    ##  6 Bronx  005               36005    10451 High Bridge and Morrisania     61791       838 2015_06_30    NA
    ##  7 Bronx  005               36005    10451 High Bridge and Morrisania     61791       838 2015_07_31    NA
    ##  8 Bronx  005               36005    10451 High Bridge and Morrisania     61791       838 2015_08_31    NA
    ##  9 Bronx  005               36005    10451 High Bridge and Morrisania     61791       838 2015_09_30    NA
    ## 10 Bronx  005               36005    10451 High Bridge and Morrisania     61791       838 2015_10_31    NA
    ## # ℹ 17,332 more rows
…
    ## `summarise()` has grouped output by 'month', 'county'. You can override using the `.groups` argument.

    joined_zipcodes_nyc_average_rent_by_month_2023

    ## # A tibble: 1,455 × 4
    ## # Groups:   month, county [60]
    ##    month county zip_code average_rent
    ##    <int> <chr>     <dbl>        <dbl>
    ##  1     1 Bronx     10451        2711.
    ##  2     1 Bronx     10454        2624.
    ##  3     1 Bronx     10457        2152.
    ##  4     1 Bronx     10458        1585.
    ##  5     1 Bronx     10461        2267.
    ##  6     1 Bronx     10462        1939.
    ##  7     1 Bronx     10463        2544.
    ##  8     1 Bronx     10465        2204.
    ##  9     1 Bronx     10467        1930.
    ## 10     1 Bronx     10468        1740.
    ## # ℹ 1,445 more rows
…
    ## Rows: 250 Columns: 1441
    ## ── Column specification ────────────────────────────────────────────────────────────────────────────────────────────────────────────
    ## Delimiter: ","
    ## dbl (1441): SEQN, min1, min2, min3, min4, min5, min6, min7, min8, min9, min10, min11, min12, min13, min14, min15, min16, min17, ...
    ## 
    ## ℹ Use `spec()` to retrieve the full column specification for this data.
    ## ℹ Specify the column types or set `show_col_types = FALSE` to quiet this message.

    accelerometer

    ## # A tibble: 360,000 × 3
    ##     seqn minute mims_values
    ##    <dbl>  <dbl>       <dbl>
    ##  1 62161      1       1.11 
    ##  2 62161      2       3.12 
    ##  3 62161      3       1.47 
    ##  4 62161      4       0.938
    ##  5 62161      5       1.60 
    ##  6 62161      6       0.145
    ##  7 62161      7       2.10 
    ##  8 62161      8       0.509
    ##  9 62161      9       1.63 
    ## 10 62161     10       1.20 
    ## # ℹ 359,990 more rows
…
    ## Rows: 250 Columns: 5
    ## ── Column specification ────────────────────────────────────────────────────────────────────────────────────────────────────────────
    ## Delimiter: ","
    ## dbl (5): SEQN, sex, age, BMI, education
    ## 
    ## ℹ Use `spec()` to retrieve the full column specification for this data.
    ## ℹ Specify the column types or set `show_col_types = FALSE` to quiet this message.

    demographic

    ## # A tibble: 232 × 5
    ##     seqn sex      age   bmi education             
    ##    <dbl> <fct>  <dbl> <dbl> <chr>                 
    ##  1 62161 male      22  23.3 high school equivalent
    ##  2 62164 female    44  23.2 more than high school 
    ##  3 62169 male      21  20.1 high school equivalent
    ##  4 62174 male      80  33.9 more than high school 
    ##  5 62177 male      51  20.1 high school equivalent
    ##  6 62178 male      80  28.5 high school equivalent
    ##  7 62180 male      35  27.9 more than high school 
    ##  8 62184 male      26  22.1 high school equivalent
    ##  9 62189 female    30  22.4 more than high school 
    ## 10 62191 male      70  NA   high school equivalent
    ## # ℹ 222 more rows

    #Join data by seqn (left join) because I want to keep the data from the accelerometer table since it is bigger. Filter ages greater than equal to 21 and reorder the table so it shows the demographic information first and accelerometer data later. 
    joined_accelerometer_demographic = 
      left_join(accelerometer, demographic, by = "seqn") |> 
      filter(age >= 21) |> 
      drop_na(sex, age, bmi, education) |> 
      select(seqn, sex, age, bmi, education, everything())

    joined_accelerometer_demographic

    ## # A tibble: 328,320 × 7
    ##     seqn sex     age   bmi education              minute mims_values
    ##    <dbl> <fct> <dbl> <dbl> <chr>                   <dbl>       <dbl>
    ##  1 62161 male     22  23.3 high school equivalent      1       1.11 
    ##  2 62161 male     22  23.3 high school equivalent      2       3.12 
    ##  3 62161 male     22  23.3 high school equivalent      3       1.47 
    ##  4 62161 male     22  23.3 high school equivalent      4       0.938
    ##  5 62161 male     22  23.3 high school equivalent      5       1.60 
    ##  6 62161 male     22  23.3 high school equivalent      6       0.145
    ##  7 62161 male     22  23.3 high school equivalent      7       2.10 
    ##  8 62161 male     22  23.3 high school equivalent      8       0.509
    ##  9 62161 male     22  23.3 high school equivalent      9       1.63 
    ## 10 62161 male     22  23.3 high school equivalent     10       1.20 
    ## # ℹ 328,310 more rows
…
    #calculating each participant’s total daily activity by grouping the data by seqn, sex, age, and education using group_by(), then summing their mims_values with summarize() while removing missing values using na.rm = TRUE.

    total_mims = joined_accelerometer_demographic |> 
      group_by(seqn, sex, age, education) |> 
      summarize(total_activity = sum(mims_values, na.rm = TRUE), .groups = "drop")
                
    total_mims  

    ## # A tibble: 228 × 5
    ##     seqn sex      age education              total_activity
    ##    <dbl> <fct>  <dbl> <chr>                           <dbl>
    ##  1 62161 male      22 high school equivalent         13194.
    ##  2 62164 female    44 more than high school          13411.
    ##  3 62169 male      21 high school equivalent          9991.
    ##  4 62174 male      80 more than high school           8579.
    ##  5 62177 male      51 high school equivalent         11918.
    ##  6 62178 male      80 high school equivalent          7489.
    ##  7 62180 male      35 more than high school          14205.
    ##  8 62184 male      26 high school equivalent         13599.
    ##  9 62189 female    30 more than high school          18551.
    ## 10 62199 male      57 more than high school          14548.
    ## # ℹ 218 more rows
…
